[
  1,
  [
    "ecpdLyjvZBwrvm+cedCcQy",
    "82hMMhzRNI34+RFEdt2DV5",
    "e97GVMl6JHh5Ml5qEDdSGa",
    "f0BIwQ8D5Ml7nTNQbh1YlS",
    "29FYIk+N1GYaeWH/q1NxQO",
    "a2MjXRFdtLlYQ5ouAFv/+R",
    "32k21gvs9IvKpJoBl+DhRV",
    "9faeTTLrlE5rfSmjGXmumY",
    "3fmdP33ulGfIqNs97XgAZa",
    "b1v09teLRGXZJ57FpMYkf9",
    "a0Qui7yrpPvquvcpTPAaoR",
    "05kQbo7iZO1ICqzRlA1Uw+"
  ],
  [
    "node",
    "_spriteFrame",
    "_N$normalSprite",
    "_N$pressedSprite",
    "_N$hoverSprite",
    "_N$disabledSprite",
    "_parent",
    "root",
    "btnContinue",
    "btnReturn",
    "data"
  ],
  [
    [
      "cc.Node",
      [
        "_name",
        "_groupIndex",
        "_prefab",
        "_contentSize",
        "_trs",
        "_components",
        "_children",
        "_parent",
        "_color"
      ],
      1,
      4,
      5,
      7,
      9,
      2,
      1,
      5
    ],
    [
      "cc.Sprite",
      [
        "_sizeMode",
        "_type",
        "node",
        "_materials",
        "_spriteFrame"
      ],
      1,
      1,
      3,
      6
    ],
    [
      "cc.PrefabInfo",
      [
        "fileId",
        "root"
      ],
      2,
      1
    ],
    [
      "cc.Widget",
      [
        "_alignFlags",
        "_bottom",
        "node"
      ],
      1,
      1
    ],
    [
      "cc.Prefab",
      [
        "_name"
      ],
      2
    ],
    [
      "cc.Node",
      [
        "_name",
        "_parent",
        "_children",
        "_components",
        "_prefab",
        "_contentSize",
        "_trs"
      ],
      2,
      1,
      2,
      12,
      4,
      5,
      7
    ],
    [
      "cc.Label",
      [
        "_string",
        "_N$horizontalAlign",
        "_N$verticalAlign",
        "node",
        "_materials"
      ],
      0,
      1,
      3
    ],
    [
      "cc.LabelOutline",
      [
        "_width",
        "node",
        "_color"
      ],
      2,
      1,
      5
    ],
    [
      "cc.Button",
      [
        "zoomScale",
        "_N$transition",
        "node",
        "clickEvents",
        "_N$normalColor",
        "_N$pressedColor",
        "_N$disabledColor",
        "_N$target"
      ],
      1,
      1,
      9,
      5,
      5,
      5,
      1
    ],
    [
      "cc.ClickEvent",
      [
        "_componentId",
        "handler",
        "target"
      ],
      1,
      1
    ],
    [
      "cc.BlockInputEvents",
      [
        "node"
      ],
      3,
      1
    ],
    [
      "81ec1uyPaVLAoqgY2dXNO5D",
      [
        "node",
        "btnReturn",
        "btnContinue"
      ],
      3,
      1,
      1,
      1
    ]
  ],
  [
    [
      2,
      0,
      1,
      2
    ],
    [
      0,
      0,
      7,
      5,
      2,
      3,
      4,
      2
    ],
    [
      1,
      2,
      3,
      4,
      1
    ],
    [
      0,
      0,
      6,
      5,
      2,
      3,
      4,
      2
    ],
    [
      5,
      0,
      1,
      2,
      3,
      4,
      5,
      6,
      2
    ],
    [
      1,
      1,
      2,
      3,
      4,
      2
    ],
    [
      6,
      0,
      1,
      2,
      3,
      4,
      4
    ],
    [
      7,
      0,
      1,
      2,
      2
    ],
    [
      8,
      0,
      1,
      2,
      3,
      4,
      5,
      6,
      7,
      3
    ],
    [
      9,
      0,
      1,
      2,
      3
    ],
    [
      3,
      0,
      1,
      2,
      3
    ],
    [
      4,
      0,
      2
    ],
    [
      0,
      0,
      1,
      6,
      5,
      2,
      3,
      4,
      3
    ],
    [
      0,
      0,
      7,
      6,
      2,
      3,
      4,
      2
    ],
    [
      0,
      0,
      7,
      5,
      2,
      8,
      3,
      4,
      2
    ],
    [
      1,
      0,
      2,
      3,
      4,
      2
    ],
    [
      2,
      1,
      1
    ],
    [
      3,
      0,
      2,
      2
    ],
    [
      10,
      0,
      1
    ],
    [
      11,
      0,
      1,
      2,
      1
    ]
  ],
  [
    [
      11,
      "Fail2View"
    ],
    [
      12,
      "Fail2View",
      1,
      [
        -7,
        -8,
        -9,
        -10
      ],
      [
        [
          17,
          45,
          -2
        ],
        [
          18,
          -3
        ],
        [
          19,
          -6,
          -5,
          -4
        ]
      ],
      [
        16,
        -1
      ],
      [
        5,
        750,
        1334
      ],
      [
        375,
        667,
        0,
        0,
        0,
        0,
        1,
        1,
        1,
        1
      ]
    ],
    [
      3,
      "Background",
      [
        -12,
        -13
      ],
      [
        [
          5,
          1,
          -11,
          [
            9
          ],
          10
        ]
      ],
      [
        0,
        "a8cvERh5tAJIuZzNphMjNj",
        1
      ],
      [
        5,
        245,
        110
      ],
      [
        0,
        0,
        0,
        0,
        0,
        0,
        1,
        1,
        1,
        0
      ]
    ],
    [
      3,
      "Background",
      [
        -15,
        -16
      ],
      [
        [
          5,
          1,
          -14,
          [
            14
          ],
          15
        ]
      ],
      [
        0,
        "89warmQW5ODJkmKfu2V/Zg",
        1
      ],
      [
        5,
        288,
        110
      ],
      [
        0,
        0,
        0,
        0,
        0,
        0,
        1,
        1,
        1,
        0
      ]
    ],
    [
      4,
      "btnReturn",
      1,
      [
        2
      ],
      [
        [
          -17,
          [
            10,
            4,
            320,
            -18
          ]
        ],
        1,
        4
      ],
      [
        0,
        "b0XRU0dxxAJYGqHNlqmUwY",
        1
      ],
      [
        5,
        245,
        110
      ],
      [
        -159.285,
        -292,
        0,
        0,
        0,
        0,
        1,
        1,
        1,
        1
      ]
    ],
    [
      4,
      "btnContinue",
      1,
      [
        3
      ],
      [
        [
          -19,
          [
            10,
            4,
            320,
            -20
          ]
        ],
        1,
        4
      ],
      [
        0,
        "a2kge4+UNGwZ6DTFrD/2Ff",
        1
      ],
      [
        5,
        288,
        110
      ],
      [
        161.691,
        -292,
        0,
        0,
        0,
        0,
        1,
        1,
        1,
        1
      ]
    ],
    [
      13,
      "New Node",
      1,
      [
        -21,
        -22
      ],
      [
        0,
        "ee3jHOPTxCVpgMwbW00hAZ",
        1
      ],
      [
        5,
        485,
        524
      ],
      [
        -1.1510000000000105,
        84.043,
        0,
        0,
        0,
        0,
        1,
        1,
        1,
        1
      ]
    ],
    [
      1,
      "New Label",
      2,
      [
        [
          6,
          "回首页",
          1,
          1,
          -23,
          [
            8
          ]
        ],
        [
          7,
          3,
          -24,
          [
            4,
            4278651947
          ]
        ]
      ],
      [
        0,
        "20P9mPd85MaKRnO7pyinp0",
        1
      ],
      [
        5,
        126,
        56.4
      ],
      [
        30.258,
        0,
        0,
        0,
        0,
        0,
        1,
        1,
        1,
        1
      ]
    ],
    [
      1,
      "New Label",
      3,
      [
        [
          6,
          "继续游戏",
          1,
          1,
          -25,
          [
            13
          ]
        ],
        [
          7,
          3,
          -26,
          [
            4,
            4278651947
          ]
        ]
      ],
      [
        0,
        "13nzmBZCNA3IKDHHhou9Gs",
        1
      ],
      [
        5,
        166,
        56.4
      ],
      [
        30.258,
        0,
        0,
        0,
        0,
        0,
        1,
        1,
        1,
        1
      ]
    ],
    [
      14,
      "Bg",
      6,
      [
        [
          15,
          0,
          -27,
          [
            0
          ],
          1
        ]
      ],
      [
        0,
        "02jEWSoCxOLY6QN9fWIJdj",
        1
      ],
      [
        4,
        4278651947
      ],
      [
        5,
        2000,
        2000
      ],
      [
        1,
        -84,
        0,
        0,
        0,
        0,
        1,
        1,
        1,
        1
      ]
    ],
    [
      1,
      "弹窗背景板",
      6,
      [
        [
          2,
          -28,
          [
            2
          ],
          3
        ]
      ],
      [
        0,
        "23U768vXNGFJCpy78IV3kk",
        1
      ],
      [
        5,
        524,
        540
      ],
      [
        -10.779,
        3.767,
        0,
        0,
        0,
        0,
        1,
        1,
        1,
        1
      ]
    ],
    [
      1,
      "标头",
      1,
      [
        [
          2,
          -29,
          [
            4
          ],
          5
        ]
      ],
      [
        0,
        "df1qXKkJNFZYNoGiI132Nl",
        1
      ],
      [
        5,
        582,
        139
      ],
      [
        0.73599999999999,
        350.981,
        0,
        0,
        0,
        0,
        1,
        1,
        1,
        1
      ]
    ],
    [
      1,
      "重来",
      2,
      [
        [
          2,
          -30,
          [
            6
          ],
          7
        ]
      ],
      [
        0,
        "7ef27pzhdB54s/qCzTqXtb",
        1
      ],
      [
        5,
        48,
        48
      ],
      [
        -70.026,
        0,
        0,
        0,
        0,
        0,
        1,
        1,
        1,
        1
      ]
    ],
    [
      8,
      0.8,
      3,
      4,
      [
        [
          9,
          "81ec1uyPaVLAoqgY2dXNO5D",
          "click_btn_return",
          1
        ]
      ],
      [
        4,
        4293322470
      ],
      [
        4,
        4291348680
      ],
      [
        4,
        3363338360
      ],
      2
    ],
    [
      1,
      "重来",
      3,
      [
        [
          2,
          -31,
          [
            11
          ],
          12
        ]
      ],
      [
        0,
        "75f/IgUYBD/KhU0Ykt7Kn7",
        1
      ],
      [
        5,
        48,
        52
      ],
      [
        -81.88,
        0,
        0,
        0,
        0,
        0,
        1,
        1,
        1,
        1
      ]
    ],
    [
      8,
      0.8,
      3,
      5,
      [
        [
          9,
          "81ec1uyPaVLAoqgY2dXNO5D",
          "click_btn_continue",
          1
        ]
      ],
      [
        4,
        4293322470
      ],
      [
        4,
        4291348680
      ],
      [
        4,
        3363338360
      ],
      3
    ]
  ],
  0,
  [
    0,
    7,
    1,
    0,
    0,
    1,
    0,
    0,
    1,
    0,
    8,
    15,
    0,
    9,
    13,
    0,
    0,
    1,
    0,
    -1,
    6,
    0,
    -2,
    11,
    0,
    -3,
    4,
    0,
    -4,
    5,
    0,
    0,
    2,
    0,
    -1,
    12,
    0,
    -2,
    7,
    0,
    0,
    3,
    0,
    -1,
    14,
    0,
    -2,
    8,
    0,
    -1,
    13,
    0,
    0,
    4,
    0,
    -1,
    15,
    0,
    0,
    5,
    0,
    -1,
    9,
    0,
    -2,
    10,
    0,
    0,
    7,
    0,
    0,
    7,
    0,
    0,
    8,
    0,
    0,
    8,
    0,
    0,
    9,
    0,
    0,
    10,
    0,
    0,
    11,
    0,
    0,
    12,
    0,
    0,
    14,
    0,
    10,
    1,
    2,
    6,
    4,
    3,
    6,
    5,
    31
  ],
  [
    0,
    0,
    0,
    0,
    0,
    0,
    0,
    0,
    0,
    0,
    0,
    0,
    0,
    0,
    0,
    0,
    13,
    13,
    13,
    13,
    15,
    15,
    15,
    15
  ],
  [
    -1,
    1,
    -1,
    1,
    -1,
    1,
    -1,
    1,
    -1,
    -1,
    1,
    -1,
    1,
    -1,
    -1,
    1,
    2,
    3,
    4,
    5,
    2,
    3,
    4,
    5
  ],
  [
    0,
    5,
    0,
    6,
    0,
    7,
    0,
    8,
    0,
    0,
    9,
    0,
    10,
    0,
    0,
    11,
    1,
    2,
    3,
    4,
    1,
    2,
    3,
    4
  ]
]