[
  1,
  [
    "148c1f5ed",
    "ecpdLyjvZBwrvm+cedCcQy",
    "27fleXomJAkYlEsGpGDAyo"
  ],
  [
    "node",
    "_textureSetter",
    "root",
    "data",
    "_spriteFrame"
  ],
  [
    [
      "cc.Node",
      [
        "_name",
        "_objFlags",
        "_components",
        "_prefab",
        "_contentSize",
        "_trs",
        "_children",
        "_color",
        "_parent"
      ],
      1,
      9,
      4,
      5,
      7,
      2,
      5,
      1
    ],
    [
      "cc.PrefabInfo",
      [
        "fileId",
        "root"
      ],
      2,
      1
    ],
    [
      "c108bfRnopIOa9Ie4Nxzp3g",
      [
        "jointType",
        "node"
      ],
      2,
      1
    ],
    "cc.SpriteFrame",
    [
      "cc.Prefab",
      [
        "_name"
      ],
      2
    ],
    [
      "cc.Sprite",
      [
        "_sizeMode",
        "node",
        "_materials",
        "_spriteFrame"
      ],
      2,
      1,
      3,
      6
    ],
    [
      "1104cn9cshLfqDIwpYjTa4m",
      [
        "node"
      ],
      3,
      1
    ],
    [
      "cc.RigidBody",
      [
        "_type",
        "node"
      ],
      2,
      1
    ],
    [
      "cc.PhysicsPolygonCollider",
      [
        "node",
        "points"
      ],
      3,
      1,
      12
    ],
    [
      "cc.BoxCollider",
      [
        "node",
        "_size"
      ],
      3,
      1,
      5
    ]
  ],
  [
    [
      0,
      0,
      1,
      8,
      2,
      3,
      4,
      5,
      3
    ],
    [
      1,
      0,
      1,
      2
    ],
    [
      9,
      0,
      1,
      1
    ],
    [
      4,
      0,
      2
    ],
    [
      0,
      0,
      6,
      2,
      3,
      7,
      4,
      5,
      2
    ],
    [
      5,
      0,
      1,
      2,
      3,
      2
    ],
    [
      6,
      0,
      1
    ],
    [
      7,
      0,
      1,
      2
    ],
    [
      8,
      0,
      1,
      1
    ],
    [
      1,
      1,
      1
    ],
    [
      2,
      1,
      1
    ],
    [
      2,
      0,
      1,
      2
    ]
  ],
  [
    [
      [
        {
          "name": "桶_装人",
          "rect": [
            758,
            547,
            201,
            257
          ],
          "offset": [
            0,
            0
          ],
          "originalSize": [
            201,
            257
          ],
          "rotated": 1,
          "capInsets": [
            0,
            0,
            0,
            0
          ]
        }
      ],
      [
        3
      ],
      0,
      [
        0
      ],
      [
        1
      ],
      [
        0
      ]
    ],
    [
      [
        [
          3,
          "空箱"
        ],
        [
          4,
          "空箱",
          [
            -6,
            -7
          ],
          [
            [
              5,
              2,
              -2,
              [
                0
              ],
              1
            ],
            [
              6,
              -3
            ],
            [
              7,
              0,
              -4
            ],
            [
              8,
              -5,
              [
                [
                  [
                    0,
                    -95,
                    95
                  ],
                  [
                    0,
                    -94.4,
                    -130.7
                  ],
                  [
                    0,
                    96.5,
                    -129.4
                  ],
                  [
                    0,
                    96,
                    91.9
                  ],
                  [
                    0,
                    76.6,
                    91.7
                  ],
                  [
                    0,
                    74.8,
                    -110.9
                  ],
                  [
                    0,
                    -67.6,
                    -110.8
                  ],
                  [
                    0,
                    -70.1,
                    93.8
                  ]
                ],
                8,
                8,
                8,
                8,
                8,
                8,
                8,
                8
              ]
            ]
          ],
          [
            9,
            -1
          ],
          [
            4,
            4294960384
          ],
          [
            5,
            201,
            257
          ],
          [
            163.759,
            -218.709,
            0,
            0,
            0,
            0,
            1,
            0.76923,
            0.76923,
            1
          ]
        ],
        [
          0,
          "Joint",
          512,
          1,
          [
            [
              2,
              -8,
              [
                5,
                60,
                30
              ]
            ],
            [
              10,
              -9
            ]
          ],
          [
            1,
            "d7hO2czk9OjrFxO+a24e0Y",
            1
          ],
          [
            5,
            60,
            30
          ],
          [
            -4.223,
            121.818,
            0,
            0,
            0,
            0,
            1,
            1,
            1,
            1
          ]
        ],
        [
          0,
          "Joint",
          512,
          1,
          [
            [
              2,
              -10,
              [
                5,
                60,
                30
              ]
            ],
            [
              11,
              1,
              -11
            ]
          ],
          [
            1,
            "80GMTKrkNMIrZqgQbJ3bRK",
            1
          ],
          [
            5,
            60,
            30
          ],
          [
            -4.223,
            56.304,
            0,
            0,
            0,
            0,
            1,
            1,
            1,
            1
          ]
        ]
      ],
      0,
      [
        0,
        2,
        1,
        0,
        0,
        1,
        0,
        0,
        1,
        0,
        0,
        1,
        0,
        0,
        1,
        0,
        -1,
        2,
        0,
        -2,
        3,
        0,
        0,
        2,
        0,
        0,
        2,
        0,
        0,
        3,
        0,
        0,
        3,
        0,
        3,
        1,
        11
      ],
      [
        0,
        0
      ],
      [
        -1,
        4
      ],
      [
        1,
        2
      ]
    ]
  ]
]