[
  1,
  [
    "ecpdLyjvZBwrvm+cedCcQy",
    "b0XT1TUSBMEqrsdPnBX3fg",
    "8eHaRz/+5FQrRCOBqv6g43",
    "07sPefzqJEaq6l+CJ6buzR",
    "742c4lA4dO4a7aYjAHTlcb",
    "7clLUPhnBHS673oTjt1Gxb",
    "e8tZ/EvFlKK5asLCx4bRdb",
    "60jeu4uDBPV6vfg7u5p9MC",
    "e4p2jaFwVONJ41v/MF9NgO",
    "1bb64c947"
  ],
  [
    "node",
    "_spriteFrame",
    "_N$dragonAsset",
    "_N$dragonAtlasAsset",
    "root",
    "data",
    "_textureSetter"
  ],
  [
    [
      "cc.Node",
      [
        "_name",
        "_prefab",
        "_contentSize",
        "_components",
        "_trs",
        "_parent",
        "_children",
        "_color"
      ],
      2,
      4,
      5,
      9,
      7,
      1,
      2,
      5
    ],
    [
      "cc.PrefabInfo",
      [
        "fileId",
        "root"
      ],
      2,
      1
    ],
    [
      "dragonBones.ArmatureDisplay",
      [
        "_armatureName",
        "_preCacheMode",
        "_armatureKey",
        "_animationName",
        "node",
        "_materials"
      ],
      -1,
      1,
      3
    ],
    "cc.SpriteFrame",
    [
      "cc.Prefab",
      [
        "_name"
      ],
      2
    ],
    [
      "cc.Node",
      [
        "_name",
        "_parent",
        "_components",
        "_prefab",
        "_color",
        "_contentSize",
        "_trs"
      ],
      2,
      1,
      12,
      4,
      5,
      5,
      7
    ],
    [
      "cc.Node",
      [
        "_name",
        "_parent",
        "_components",
        "_prefab",
        "_contentSize",
        "_trs"
      ],
      2,
      1,
      2,
      4,
      5,
      7
    ],
    [
      "cc.Sprite",
      [
        "node",
        "_materials",
        "_spriteFrame"
      ],
      3,
      1,
      3,
      6
    ],
    [
      "7a1cfi44tZMXawkO0ABMx/L",
      [
        "node",
        "nodeOnUse_arr",
        "nodeAd_arr",
        "labelMoney_arr",
        "nodeMoney_arr",
        "nodeUse_arr",
        "nodeRole_arr",
        "display_arr"
      ],
      3,
      1,
      2,
      2,
      2,
      2,
      2,
      2,
      2
    ],
    [
      "cc.Label",
      [
        "_string",
        "_fontSize",
        "_lineHeight",
        "_N$horizontalAlign",
        "_N$verticalAlign",
        "node",
        "_materials"
      ],
      -2,
      1,
      3
    ],
    [
      "cc.LabelOutline",
      [
        "_width",
        "node",
        "_color"
      ],
      2,
      1,
      5
    ]
  ],
  [
    [
      1,
      0,
      1,
      2
    ],
    [
      7,
      0,
      1,
      2,
      1
    ],
    [
      0,
      0,
      5,
      6,
      3,
      1,
      2,
      4,
      2
    ],
    [
      9,
      0,
      1,
      2,
      3,
      4,
      5,
      6,
      6
    ],
    [
      10,
      0,
      1,
      2,
      2
    ],
    [
      0,
      0,
      5,
      3,
      1,
      7,
      2,
      2
    ],
    [
      0,
      0,
      5,
      3,
      1,
      2,
      4,
      2
    ],
    [
      0,
      0,
      5,
      6,
      1,
      2,
      4,
      2
    ],
    [
      5,
      0,
      1,
      2,
      3,
      4,
      5,
      6,
      2
    ],
    [
      6,
      0,
      1,
      2,
      3,
      4,
      5,
      2
    ],
    [
      2,
      0,
      3,
      1,
      2,
      4,
      5,
      5
    ],
    [
      4,
      0,
      2
    ],
    [
      0,
      0,
      6,
      3,
      1,
      2,
      4,
      2
    ],
    [
      8,
      0,
      1,
      2,
      3,
      4,
      5,
      6,
      7,
      1
    ],
    [
      1,
      1,
      1
    ],
    [
      2,
      0,
      1,
      2,
      4,
      5,
      4
    ]
  ],
  [
    [
      [
        [
          11,
          "FashionItem"
        ],
        [
          12,
          "FashionItem",
          [
            -25,
            -26,
            -27
          ],
          [
            [
              1,
              -2,
              [
                57
              ],
              58
            ],
            [
              13,
              -24,
              [
                -21,
                -22,
                -23
              ],
              [
                -18,
                -19,
                -20
              ],
              [
                -15,
                -16,
                -17
              ],
              [
                -12,
                -13,
                -14
              ],
              [
                -9,
                -10,
                -11
              ],
              [
                -6,
                -7,
                -8
              ],
              [
                -3,
                -4,
                -5
              ]
            ]
          ],
          [
            14,
            -1
          ],
          [
            5,
            750,
            71
          ],
          [
            0,
            -285.5,
            0,
            0,
            0,
            0,
            1,
            1,
            1,
            1
          ]
        ],
        [
          7,
          "nodeRole",
          1,
          [
            -28,
            -29,
            -30,
            -31,
            -32
          ],
          [
            0,
            "494+ayTZpIDbnHcz0hLTTL",
            1
          ],
          [
            5,
            156.01,
            360.54
          ],
          [
            -250,
            137.062,
            0,
            0,
            0,
            0,
            1,
            -0.6,
            0.6,
            1
          ]
        ],
        [
          7,
          "nodeRole",
          1,
          [
            -33,
            -34,
            -35,
            -36,
            -37
          ],
          [
            0,
            "cbTHhmnWxMlZ9Eb1xgaxGw",
            1
          ],
          [
            5,
            156.01,
            360.54
          ],
          [
            0,
            137.062,
            0,
            0,
            0,
            0,
            1,
            -0.6,
            0.6,
            1
          ]
        ],
        [
          7,
          "nodeRole",
          1,
          [
            -38,
            -39,
            -40,
            -41,
            -42
          ],
          [
            0,
            "9a6o+0Fa9Fc7LmoLPdqKni",
            1
          ],
          [
            5,
            156.01,
            360.54
          ],
          [
            250,
            137.062,
            0,
            0,
            0,
            0,
            1,
            -0.6,
            0.6,
            1
          ]
        ],
        [
          2,
          "nodeOnUse",
          2,
          [
            -44,
            -45
          ],
          [
            [
              1,
              -43,
              [
                3
              ],
              4
            ]
          ],
          [
            0,
            "55Kge+oVJNLrvSE2/+jZ0p",
            1
          ],
          [
            5,
            119,
            66
          ],
          [
            0,
            -247.37833,
            0,
            0,
            0,
            0,
            1,
            -1.66667,
            1.66667,
            -1.66667
          ]
        ],
        [
          2,
          "nodeAd",
          2,
          [
            -47,
            -48
          ],
          [
            [
              1,
              -46,
              [
                8
              ],
              9
            ]
          ],
          [
            0,
            "69yuuFRflF+qlwjTbfo/6O",
            1
          ],
          [
            5,
            146,
            46
          ],
          [
            0,
            -247.37833,
            0,
            0,
            0,
            0,
            1,
            -1.66667,
            1.66667,
            -1.66667
          ]
        ],
        [
          2,
          "nodeMoney",
          2,
          [
            -50,
            -51
          ],
          [
            [
              1,
              -49,
              [
                13
              ],
              14
            ]
          ],
          [
            0,
            "d2oM/Rc6FND6Vm/LPniu7Y",
            1
          ],
          [
            5,
            146,
            46
          ],
          [
            0,
            -247.37833,
            0,
            0,
            0,
            0,
            1,
            -1.66667,
            1.66667,
            -1.66667
          ]
        ],
        [
          2,
          "nodeOnUse",
          3,
          [
            -53,
            -54
          ],
          [
            [
              1,
              -52,
              [
                22
              ],
              23
            ]
          ],
          [
            0,
            "59vHKUGzNKgbN7UdBfuEKD",
            1
          ],
          [
            5,
            119,
            66
          ],
          [
            0,
            -247.37833,
            0,
            0,
            0,
            0,
            1,
            -1.66667,
            1.66667,
            -1.66667
          ]
        ],
        [
          2,
          "nodeAd",
          3,
          [
            -56,
            -57
          ],
          [
            [
              1,
              -55,
              [
                27
              ],
              28
            ]
          ],
          [
            0,
            "b3gWCIHMZJSa/x5iSa9fvu",
            1
          ],
          [
            5,
            146,
            46
          ],
          [
            0,
            -247.37833,
            0,
            0,
            0,
            0,
            1,
            -1.66667,
            1.66667,
            -1.66667
          ]
        ],
        [
          2,
          "nodeMoney",
          3,
          [
            -59,
            -60
          ],
          [
            [
              1,
              -58,
              [
                32
              ],
              33
            ]
          ],
          [
            0,
            "668dHkOThM5JDw77dWM0fl",
            1
          ],
          [
            5,
            146,
            46
          ],
          [
            0,
            -247.37833,
            0,
            0,
            0,
            0,
            1,
            -1.66667,
            1.66667,
            -1.66667
          ]
        ],
        [
          2,
          "nodeOnUse",
          4,
          [
            -62,
            -63
          ],
          [
            [
              1,
              -61,
              [
                41
              ],
              42
            ]
          ],
          [
            0,
            "83t4ftAxpNB6AntVQxmNn4",
            1
          ],
          [
            5,
            119,
            66
          ],
          [
            0,
            -247.37833,
            0,
            0,
            0,
            0,
            1,
            -1.66667,
            1.66667,
            -1.66667
          ]
        ],
        [
          2,
          "nodeAd",
          4,
          [
            -65,
            -66
          ],
          [
            [
              1,
              -64,
              [
                46
              ],
              47
            ]
          ],
          [
            0,
            "e40NHfIwhO1bFvcg4gxDDr",
            1
          ],
          [
            5,
            146,
            46
          ],
          [
            0,
            -247.37833,
            0,
            0,
            0,
            0,
            1,
            -1.66667,
            1.66667,
            -1.66667
          ]
        ],
        [
          2,
          "nodeMoney",
          4,
          [
            -68,
            -69
          ],
          [
            [
              1,
              -67,
              [
                51
              ],
              52
            ]
          ],
          [
            0,
            "69T87pWolLLrHFINt+vjbt",
            1
          ],
          [
            5,
            146,
            46
          ],
          [
            0,
            -247.37833,
            0,
            0,
            0,
            0,
            1,
            -1.66667,
            1.66667,
            -1.66667
          ]
        ],
        [
          2,
          "nodeUse",
          2,
          [
            -71
          ],
          [
            [
              1,
              -70,
              [
                16
              ],
              17
            ]
          ],
          [
            0,
            "31XfEKW1tD+YgnD6BQKlea",
            1
          ],
          [
            5,
            146,
            46
          ],
          [
            0,
            -247.37833,
            0,
            0,
            0,
            0,
            1,
            -1.66667,
            1.66667,
            -1.66667
          ]
        ],
        [
          2,
          "nodeUse",
          3,
          [
            -73
          ],
          [
            [
              1,
              -72,
              [
                35
              ],
              36
            ]
          ],
          [
            0,
            "f16O/V4uNIEaM6ozMPYRJF",
            1
          ],
          [
            5,
            146,
            46
          ],
          [
            0,
            -247.37833,
            0,
            0,
            0,
            0,
            1,
            -1.66667,
            1.66667,
            -1.66667
          ]
        ],
        [
          2,
          "nodeUse",
          4,
          [
            -75
          ],
          [
            [
              1,
              -74,
              [
                54
              ],
              55
            ]
          ],
          [
            0,
            "8cRRle8/FF5axT5iddWJp4",
            1
          ],
          [
            5,
            146,
            46
          ],
          [
            0,
            -247.37833,
            0,
            0,
            0,
            0,
            1,
            -1.66667,
            1.66667,
            -1.66667
          ]
        ],
        [
          5,
          "New Label",
          5,
          [
            [
              3,
              "使用中",
              26,
              26,
              1,
              1,
              -76,
              [
                0
              ]
            ],
            [
              4,
              2,
              -77,
              [
                4,
                4278190080
              ]
            ]
          ],
          [
            0,
            "d1rzoUwztLHakTlwdbb7r1",
            1
          ],
          [
            4,
            4291555823
          ],
          [
            5,
            82,
            36.76
          ]
        ],
        [
          5,
          "New Label",
          6,
          [
            [
              3,
              "获取",
              26,
              26,
              1,
              1,
              -78,
              [
                5
              ]
            ],
            [
              4,
              2,
              -79,
              [
                4,
                4278190080
              ]
            ]
          ],
          [
            0,
            "08atYpJPNOu5RGfsRDWvrs",
            1
          ],
          [
            4,
            4291555823
          ],
          [
            5,
            56,
            36.76
          ]
        ],
        [
          8,
          "labelMoney",
          7,
          [
            [
              -80,
              [
                4,
                2,
                -81,
                [
                  4,
                  4278190080
                ]
              ]
            ],
            1,
            4
          ],
          [
            0,
            "abQi2fm5VKZKuEYp+Thjs0",
            1
          ],
          [
            4,
            4291555823
          ],
          [
            5,
            76.3,
            36.76
          ],
          [
            16.964,
            0,
            0,
            0,
            0,
            0,
            1,
            1,
            1,
            1
          ]
        ],
        [
          5,
          "New Label",
          14,
          [
            [
              3,
              "使用",
              26,
              26,
              1,
              1,
              -82,
              [
                15
              ]
            ],
            [
              4,
              2,
              -83,
              [
                4,
                4278190080
              ]
            ]
          ],
          [
            0,
            "9azr+oT9FPcbyEEy7RGQit",
            1
          ],
          [
            4,
            4291555823
          ],
          [
            5,
            56,
            36.76
          ]
        ],
        [
          5,
          "New Label",
          8,
          [
            [
              3,
              "使用中",
              26,
              26,
              1,
              1,
              -84,
              [
                19
              ]
            ],
            [
              4,
              2,
              -85,
              [
                4,
                4278190080
              ]
            ]
          ],
          [
            0,
            "8f1a0my2VFIKkdEutERjdn",
            1
          ],
          [
            4,
            4291555823
          ],
          [
            5,
            82,
            36.76
          ]
        ],
        [
          5,
          "New Label",
          9,
          [
            [
              3,
              "获取",
              26,
              26,
              1,
              1,
              -86,
              [
                24
              ]
            ],
            [
              4,
              2,
              -87,
              [
                4,
                4278190080
              ]
            ]
          ],
          [
            0,
            "b3yw+Ib5hOWrJh0znK9CZA",
            1
          ],
          [
            4,
            4291555823
          ],
          [
            5,
            56,
            36.76
          ]
        ],
        [
          8,
          "labelMoney",
          10,
          [
            [
              -88,
              [
                4,
                2,
                -89,
                [
                  4,
                  4278190080
                ]
              ]
            ],
            1,
            4
          ],
          [
            0,
            "1bejcld0BIRJDWk9arffD1",
            1
          ],
          [
            4,
            4291555823
          ],
          [
            5,
            76.3,
            36.76
          ],
          [
            16.964,
            0,
            0,
            0,
            0,
            0,
            1,
            1,
            1,
            1
          ]
        ],
        [
          5,
          "New Label",
          15,
          [
            [
              3,
              "使用",
              26,
              26,
              1,
              1,
              -90,
              [
                34
              ]
            ],
            [
              4,
              2,
              -91,
              [
                4,
                4278190080
              ]
            ]
          ],
          [
            0,
            "55joYLJrNCWYi9vMdthd5N",
            1
          ],
          [
            4,
            4291555823
          ],
          [
            5,
            56,
            36.76
          ]
        ],
        [
          5,
          "New Label",
          11,
          [
            [
              3,
              "使用中",
              26,
              26,
              1,
              1,
              -92,
              [
                38
              ]
            ],
            [
              4,
              2,
              -93,
              [
                4,
                4278190080
              ]
            ]
          ],
          [
            0,
            "fc54oX/4RNbLLpFplBhsCx",
            1
          ],
          [
            4,
            4291555823
          ],
          [
            5,
            82,
            36.76
          ]
        ],
        [
          5,
          "New Label",
          12,
          [
            [
              3,
              "获取",
              26,
              26,
              1,
              1,
              -94,
              [
                43
              ]
            ],
            [
              4,
              2,
              -95,
              [
                4,
                4278190080
              ]
            ]
          ],
          [
            0,
            "af5SJcPNZC57EThI2NJCFa",
            1
          ],
          [
            4,
            4291555823
          ],
          [
            5,
            56,
            36.76
          ]
        ],
        [
          8,
          "labelMoney",
          13,
          [
            [
              -96,
              [
                4,
                2,
                -97,
                [
                  4,
                  4278190080
                ]
              ]
            ],
            1,
            4
          ],
          [
            0,
            "d9HG9nDoNOWYvk44mrF0Cw",
            1
          ],
          [
            4,
            4291555823
          ],
          [
            5,
            76.3,
            36.76
          ],
          [
            16.964,
            0,
            0,
            0,
            0,
            0,
            1,
            1,
            1,
            1
          ]
        ],
        [
          5,
          "New Label",
          16,
          [
            [
              3,
              "使用",
              26,
              26,
              1,
              1,
              -98,
              [
                53
              ]
            ],
            [
              4,
              2,
              -99,
              [
                4,
                4278190080
              ]
            ]
          ],
          [
            0,
            "c4SGbuAWlGWa+LLjFmZ9Ce",
            1
          ],
          [
            4,
            4291555823
          ],
          [
            5,
            56,
            36.76
          ]
        ],
        [
          6,
          "组 91",
          5,
          [
            [
              1,
              -100,
              [
                1
              ],
              2
            ]
          ],
          [
            0,
            "42dgjYWXhDAoE2SHsHpaHc",
            1
          ],
          [
            5,
            121,
            31
          ],
          [
            0.331,
            39.252,
            0,
            0,
            0,
            0,
            1,
            -1,
            1,
            -1
          ]
        ],
        [
          6,
          "看视频图标",
          6,
          [
            [
              1,
              -101,
              [
                6
              ],
              7
            ]
          ],
          [
            0,
            "1e30fHf81I05O6laDqLj7e",
            1
          ],
          [
            5,
            44,
            40
          ],
          [
            43.439,
            11.163,
            0,
            0,
            0,
            0,
            1,
            1,
            1,
            1
          ]
        ],
        [
          3,
          "50000",
          26,
          26,
          1,
          1,
          19,
          [
            10
          ]
        ],
        [
          6,
          "组 76 拷贝",
          7,
          [
            [
              1,
              -102,
              [
                11
              ],
              12
            ]
          ],
          [
            0,
            "61B3BmEKFAHaoZOvOssW9x",
            1
          ],
          [
            5,
            34,
            34
          ],
          [
            -41.648,
            0,
            0,
            0,
            0,
            0,
            1,
            1,
            1,
            1
          ]
        ],
        [
          9,
          "New Node",
          2,
          [
            -103
          ],
          [
            0,
            "fdZPfIrIJBCLWIl5z6jbz0",
            1
          ],
          [
            5,
            156.01,
            360.54
          ],
          [
            0,
            -177.149,
            0,
            0,
            0,
            0,
            1,
            1,
            1,
            1
          ]
        ],
        [
          15,
          "男主角",
          0,
          "e8b59fc4-bc59-4a2b-96ac-2c2c786d175b#608debb8-b830-4f57-abdf-83bbb9a7d302",
          33,
          [
            18
          ]
        ],
        [
          6,
          "组 91",
          8,
          [
            [
              1,
              -104,
              [
                20
              ],
              21
            ]
          ],
          [
            0,
            "3byqPbtj1FIpNuV82KK5Ty",
            1
          ],
          [
            5,
            121,
            31
          ],
          [
            0.331,
            39.252,
            0,
            0,
            0,
            0,
            1,
            -1,
            1,
            -1
          ]
        ],
        [
          6,
          "看视频图标",
          9,
          [
            [
              1,
              -105,
              [
                25
              ],
              26
            ]
          ],
          [
            0,
            "08BOlb6mpCKIXwdoEXARDI",
            1
          ],
          [
            5,
            44,
            40
          ],
          [
            43.439,
            11.163,
            0,
            0,
            0,
            0,
            1,
            1,
            1,
            1
          ]
        ],
        [
          3,
          "50000",
          26,
          26,
          1,
          1,
          23,
          [
            29
          ]
        ],
        [
          6,
          "组 76 拷贝",
          10,
          [
            [
              1,
              -106,
              [
                30
              ],
              31
            ]
          ],
          [
            0,
            "3eaPcQGkpOrYfsG5X8xSnC",
            1
          ],
          [
            5,
            34,
            34
          ],
          [
            -41.648,
            0,
            0,
            0,
            0,
            0,
            1,
            1,
            1,
            1
          ]
        ],
        [
          9,
          "New Node",
          3,
          [
            -107
          ],
          [
            0,
            "95BW3M9FZAYYrudiQeWhzk",
            1
          ],
          [
            5,
            156.01,
            360.54
          ],
          [
            0,
            -177.149,
            0,
            0,
            0,
            0,
            1,
            1,
            1,
            1
          ]
        ],
        [
          10,
          "男主角",
          "初始_待机",
          0,
          "e8b59fc4-bc59-4a2b-96ac-2c2c786d175b#608debb8-b830-4f57-abdf-83bbb9a7d302",
          39,
          [
            37
          ]
        ],
        [
          6,
          "组 91",
          11,
          [
            [
              1,
              -108,
              [
                39
              ],
              40
            ]
          ],
          [
            0,
            "c200txozlKVruJ9XrT5eFe",
            1
          ],
          [
            5,
            121,
            31
          ],
          [
            0.331,
            39.252,
            0,
            0,
            0,
            0,
            1,
            -1,
            1,
            -1
          ]
        ],
        [
          6,
          "看视频图标",
          12,
          [
            [
              1,
              -109,
              [
                44
              ],
              45
            ]
          ],
          [
            0,
            "c5iV3jbwlLWIt22ZLaPSez",
            1
          ],
          [
            5,
            44,
            40
          ],
          [
            43.439,
            11.163,
            0,
            0,
            0,
            0,
            1,
            1,
            1,
            1
          ]
        ],
        [
          3,
          "50000",
          26,
          26,
          1,
          1,
          27,
          [
            48
          ]
        ],
        [
          6,
          "组 76 拷贝",
          13,
          [
            [
              1,
              -110,
              [
                49
              ],
              50
            ]
          ],
          [
            0,
            "d8KnQcXzdBbo7ist0b4HG5",
            1
          ],
          [
            5,
            34,
            34
          ],
          [
            -41.648,
            0,
            0,
            0,
            0,
            0,
            1,
            1,
            1,
            1
          ]
        ],
        [
          9,
          "New Node",
          4,
          [
            -111
          ],
          [
            0,
            "951oVHg8VFj6IgRdtIR2Q/",
            1
          ],
          [
            5,
            156.01,
            360.54
          ],
          [
            0,
            -177.149,
            0,
            0,
            0,
            0,
            1,
            1,
            1,
            1
          ]
        ],
        [
          10,
          "男主角",
          "初始_待机",
          0,
          "e8b59fc4-bc59-4a2b-96ac-2c2c786d175b#608debb8-b830-4f57-abdf-83bbb9a7d302",
          45,
          [
            56
          ]
        ]
      ],
      0,
      [
        0,
        4,
        1,
        0,
        0,
        1,
        0,
        -1,
        34,
        0,
        -2,
        40,
        0,
        -3,
        46,
        0,
        -1,
        2,
        0,
        -2,
        3,
        0,
        -3,
        4,
        0,
        -1,
        14,
        0,
        -2,
        15,
        0,
        -3,
        16,
        0,
        -1,
        7,
        0,
        -2,
        10,
        0,
        -3,
        13,
        0,
        -1,
        31,
        0,
        -2,
        37,
        0,
        -3,
        43,
        0,
        -1,
        6,
        0,
        -2,
        9,
        0,
        -3,
        12,
        0,
        -1,
        5,
        0,
        -2,
        8,
        0,
        -3,
        11,
        0,
        0,
        1,
        0,
        -1,
        2,
        0,
        -2,
        3,
        0,
        -3,
        4,
        0,
        -1,
        5,
        0,
        -2,
        6,
        0,
        -3,
        7,
        0,
        -4,
        14,
        0,
        -5,
        33,
        0,
        -1,
        8,
        0,
        -2,
        9,
        0,
        -3,
        10,
        0,
        -4,
        15,
        0,
        -5,
        39,
        0,
        -1,
        11,
        0,
        -2,
        12,
        0,
        -3,
        13,
        0,
        -4,
        16,
        0,
        -5,
        45,
        0,
        0,
        5,
        0,
        -1,
        17,
        0,
        -2,
        29,
        0,
        0,
        6,
        0,
        -1,
        18,
        0,
        -2,
        30,
        0,
        0,
        7,
        0,
        -1,
        19,
        0,
        -2,
        32,
        0,
        0,
        8,
        0,
        -1,
        21,
        0,
        -2,
        35,
        0,
        0,
        9,
        0,
        -1,
        22,
        0,
        -2,
        36,
        0,
        0,
        10,
        0,
        -1,
        23,
        0,
        -2,
        38,
        0,
        0,
        11,
        0,
        -1,
        25,
        0,
        -2,
        41,
        0,
        0,
        12,
        0,
        -1,
        26,
        0,
        -2,
        42,
        0,
        0,
        13,
        0,
        -1,
        27,
        0,
        -2,
        44,
        0,
        0,
        14,
        0,
        -1,
        20,
        0,
        0,
        15,
        0,
        -1,
        24,
        0,
        0,
        16,
        0,
        -1,
        28,
        0,
        0,
        17,
        0,
        0,
        17,
        0,
        0,
        18,
        0,
        0,
        18,
        0,
        -1,
        31,
        0,
        0,
        19,
        0,
        0,
        20,
        0,
        0,
        20,
        0,
        0,
        21,
        0,
        0,
        21,
        0,
        0,
        22,
        0,
        0,
        22,
        0,
        -1,
        37,
        0,
        0,
        23,
        0,
        0,
        24,
        0,
        0,
        24,
        0,
        0,
        25,
        0,
        0,
        25,
        0,
        0,
        26,
        0,
        0,
        26,
        0,
        -1,
        43,
        0,
        0,
        27,
        0,
        0,
        28,
        0,
        0,
        28,
        0,
        0,
        29,
        0,
        0,
        30,
        0,
        0,
        32,
        0,
        -1,
        34,
        0,
        0,
        35,
        0,
        0,
        36,
        0,
        0,
        38,
        0,
        -1,
        40,
        0,
        0,
        41,
        0,
        0,
        42,
        0,
        0,
        44,
        0,
        -1,
        46,
        0,
        5,
        1,
        111
      ],
      [
        0,
        0,
        0,
        0,
        0,
        0,
        0,
        0,
        0,
        0,
        0,
        0,
        0,
        0,
        0,
        0,
        0,
        0,
        0,
        0,
        0,
        0,
        0,
        0,
        0,
        0,
        0,
        0,
        0,
        0,
        0,
        0,
        0,
        0,
        0,
        0,
        0,
        0,
        0,
        0,
        0,
        0,
        0,
        0,
        0,
        0,
        0,
        0,
        0,
        0,
        0,
        0,
        0,
        0,
        0,
        0,
        0,
        0,
        0,
        34,
        34,
        40,
        40,
        46,
        46
      ],
      [
        -1,
        -1,
        1,
        -1,
        1,
        -1,
        -1,
        1,
        -1,
        1,
        -1,
        -1,
        1,
        -1,
        1,
        -1,
        -1,
        1,
        -1,
        -1,
        -1,
        1,
        -1,
        1,
        -1,
        -1,
        1,
        -1,
        1,
        -1,
        -1,
        1,
        -1,
        1,
        -1,
        -1,
        1,
        -1,
        -1,
        -1,
        1,
        -1,
        1,
        -1,
        -1,
        1,
        -1,
        1,
        -1,
        -1,
        1,
        -1,
        1,
        -1,
        -1,
        1,
        -1,
        -1,
        1,
        2,
        3,
        2,
        3,
        2,
        3
      ],
      [
        0,
        0,
        2,
        0,
        3,
        0,
        0,
        4,
        0,
        1,
        0,
        0,
        5,
        0,
        1,
        0,
        0,
        1,
        0,
        0,
        0,
        2,
        0,
        3,
        0,
        0,
        4,
        0,
        1,
        0,
        0,
        5,
        0,
        1,
        0,
        0,
        1,
        0,
        0,
        0,
        2,
        0,
        3,
        0,
        0,
        4,
        0,
        1,
        0,
        0,
        5,
        0,
        1,
        0,
        0,
        1,
        0,
        0,
        8,
        6,
        7,
        6,
        7,
        6,
        7
      ]
    ],
    [
      [
        {
          "name": "换装场景_人物柜子_隔断",
          "rect": [
            759,
            758,
            750,
            71
          ],
          "offset": [
            0,
            0
          ],
          "originalSize": [
            750,
            71
          ],
          "rotated": 1,
          "capInsets": [
            0,
            0,
            0,
            0
          ]
        }
      ],
      [
        3
      ],
      0,
      [
        0
      ],
      [
        6
      ],
      [
        9
      ]
    ]
  ]
]