[
  1,
  [
    "1dd34c579"
  ],
  [
    "_textureSetter"
  ],
  [
    "cc.SpriteFrame"
  ],
  0,
  [
    {
      "name": "木头",
      "rect": [
        759,
        3,
        493,
        76
      ],
      "offset": [
        0,
        0
      ],
      "originalSize": [
        493,
        76
      ],
      "rotated": 1,
      "capInsets": [
        0,
        0,
        0,
        0
      ]
    }
  ],
  [
    0
  ],
  0,
  [
    0
  ],
  [
    0
  ],
  [
    0
  ]
]