[
  1,
  [
    "ecpdLyjvZBwrvm+cedCcQy",
    "e0T9R15RFPprPxuOQX3hDm",
    "a045MCU/NEKKkeXKULKp9/",
    "99ZY0ctTZHVY/yenGs40wv",
    "8dDsDXmb9D66n5QPFm4ZJQ",
    "edsRv7PXZKIYVOcJEzis3g",
    "99Ggx6QxtKn5Jzc0ZxZMxk",
    "d2lsLO2iRP5rdHCOs9IMZ+",
    "f7QkGF0hdK4KxaKnCGk+aW",
    "be/ZQTDQRIp7E+yVBzdJdq",
    "a9EB23zXpIlKvmrEHdfU0u",
    "93tMDbYJhHWKJs85CfSti2"
  ],
  [
    "root",
    "asset",
    "node",
    "_spriteFrame",
    "data"
  ],
  [
    [
      "cc.Node",
      [
        "_name",
        "_active",
        "_prefab",
        "_trs",
        "_parent",
        "_components",
        "_children",
        "_contentSize",
        "_eulerAngles",
        "_color"
      ],
      1,
      4,
      7,
      1,
      9,
      2,
      5,
      5,
      5
    ],
    [
      "cc.Sprite",
      [
        "_sizeMode",
        "_type",
        "node",
        "_materials",
        "_spriteFrame"
      ],
      1,
      1,
      3,
      6
    ],
    [
      "cc.PrefabInfo",
      [
        "fileId",
        "sync",
        "root",
        "asset"
      ],
      1,
      1,
      6
    ],
    [
      "cc.Prefab",
      [
        "_name"
      ],
      2
    ],
    [
      "cc.Label",
      [
        "_string",
        "_N$horizontalAlign",
        "_N$verticalAlign",
        "node",
        "_materials"
      ],
      0,
      1,
      3
    ],
    [
      "d929b3L4TRCH6HDrg0bZhlP",
      [
        "node"
      ],
      3,
      1
    ]
  ],
  [
    [
      2,
      0,
      1,
      2,
      3,
      3
    ],
    [
      2,
      0,
      2,
      2
    ],
    [
      0,
      0,
      4,
      2,
      3,
      2
    ],
    [
      0,
      0,
      4,
      5,
      2,
      7,
      3,
      2
    ],
    [
      0,
      0,
      4,
      2,
      8,
      3,
      2
    ],
    [
      1,
      2,
      3,
      4,
      1
    ],
    [
      1,
      0,
      2,
      3,
      4,
      2
    ],
    [
      3,
      0,
      2
    ],
    [
      0,
      0,
      6,
      5,
      2,
      3,
      2
    ],
    [
      0,
      0,
      4,
      6,
      2,
      3,
      2
    ],
    [
      0,
      0,
      1,
      4,
      6,
      5,
      2,
      7,
      3,
      3
    ],
    [
      0,
      0,
      4,
      5,
      2,
      9,
      7,
      3,
      2
    ],
    [
      1,
      1,
      0,
      2,
      3,
      4,
      3
    ],
    [
      2,
      2,
      1
    ],
    [
      4,
      0,
      1,
      2,
      3,
      4,
      4
    ],
    [
      5,
      0,
      1
    ]
  ],
  [
    [
      7,
      "5"
    ],
    [
      8,
      "Mission1001",
      [
        -3,
        -4,
        -5,
        -6,
        -7,
        -8,
        -9,
        -10,
        -11,
        -12,
        -13,
        -14
      ],
      [
        [
          15,
          -2
        ]
      ],
      [
        13,
        -1
      ],
      [
        0,
        0,
        0,
        0,
        0,
        0,
        1,
        1.3,
        1.3,
        1
      ]
    ],
    [
      9,
      "Bg",
      1,
      [
        -15,
        -16
      ],
      [
        1,
        "64I8DhCZRAKYDRDQOpih75",
        1
      ],
      [
        0,
        -39.241,
        0,
        0,
        0,
        0,
        1,
        1,
        1,
        1
      ]
    ],
    [
      10,
      "气泡",
      false,
      1,
      [
        -18
      ],
      [
        [
          12,
          1,
          0,
          -17,
          [
            16
          ],
          17
        ]
      ],
      [
        1,
        "b92d5ua4dHh74mD0ll2I+H",
        1
      ],
      [
        5,
        295.4,
        139.2
      ],
      [
        -81.482,
        -29.565,
        0,
        0,
        0,
        0,
        1,
        1,
        1,
        1
      ]
    ],
    [
      3,
      "关卡场景_背景",
      2,
      [
        [
          5,
          -19,
          [
            0
          ],
          1
        ]
      ],
      [
        1,
        "a9DOlOKHRD+4jyILTMIfbK",
        1
      ],
      [
        5,
        1500,
        1239
      ],
      [
        0,
        194.076,
        0,
        0,
        0,
        0,
        1,
        1,
        1,
        1
      ]
    ],
    [
      3,
      "关卡场景_房子",
      2,
      [
        [
          5,
          -20,
          [
            2
          ],
          3
        ]
      ],
      [
        1,
        "daq4rAIalFgYMh0Wdsqq43",
        1
      ],
      [
        5,
        749,
        1014
      ],
      [
        0,
        82.529,
        0,
        0,
        0,
        0,
        1,
        1,
        1,
        1
      ]
    ],
    [
      3,
      "木头",
      1,
      [
        [
          6,
          0,
          -21,
          [
            4
          ],
          5
        ]
      ],
      [
        1,
        "ecfKzwwnVF6KUkuSzFjD80",
        1
      ],
      [
        5,
        493,
        35
      ],
      [
        -71.246,
        -44.554,
        0,
        0,
        0,
        0,
        1,
        0.8,
        0.8,
        1
      ]
    ],
    [
      3,
      "关卡场景_地面",
      1,
      [
        [
          6,
          0,
          -22,
          [
            6
          ],
          7
        ]
      ],
      [
        1,
        "84GkHjweZKQaK+Pia1ETum",
        1
      ],
      [
        5,
        1500,
        385
      ],
      [
        0,
        -559.178,
        0,
        0,
        0,
        0,
        1,
        1,
        1,
        1
      ]
    ],
    [
      2,
      "health",
      1,
      [
        0,
        "d5J+ort15H7Y12qkLjOtDC",
        true,
        -23,
        8
      ],
      [
        47.585,
        67.819,
        0,
        0,
        0,
        0,
        1,
        1,
        1,
        1
      ]
    ],
    [
      4,
      "弯管",
      1,
      [
        0,
        "1c1F7aDl1OFJ5FqTybU/3x",
        true,
        -24,
        9
      ],
      [
        1,
        0,
        0,
        -90
      ],
      [
        161.451,
        49.214,
        0,
        0,
        0,
        -0.7071067811865475,
        0.7071067811865476,
        1,
        1,
        1
      ]
    ],
    [
      2,
      "直管",
      1,
      [
        0,
        "7e2Q4QVWVNg6tTV1QcCbY9",
        true,
        -25,
        10
      ],
      [
        177.928,
        -27.147,
        0,
        0,
        0,
        0,
        1,
        1,
        1,
        1
      ]
    ],
    [
      4,
      "曲管",
      1,
      [
        0,
        "c0a+gNN9dK/p7k4jDOGGvL",
        true,
        -26,
        11
      ],
      [
        1,
        0,
        0,
        -90
      ],
      [
        177.425,
        -111.858,
        0,
        0,
        0,
        -0.7071067811865475,
        0.7071067811865476,
        1,
        1,
        1
      ]
    ],
    [
      4,
      "直管",
      1,
      [
        0,
        "5fl5ZYEJND8ae+SlWyoM9F",
        true,
        -27,
        12
      ],
      [
        1,
        0,
        0,
        90
      ],
      [
        85.756,
        -130.329,
        0,
        0,
        0,
        0.7071067811865475,
        0.7071067811865476,
        1,
        1,
        1
      ]
    ],
    [
      2,
      "男主",
      1,
      [
        0,
        "2euJ4rBJNDHorbbsInLuwn",
        true,
        -28,
        13
      ],
      [
        -9.145,
        -361.681,
        0,
        0,
        0,
        0,
        1,
        1,
        1,
        1
      ]
    ],
    [
      2,
      "空箱",
      1,
      [
        0,
        "a4WasKJnFIXZdPtVwZIsaF",
        true,
        -29,
        14
      ],
      [
        -6.245,
        -269.883,
        0,
        0,
        0,
        0,
        1,
        1,
        1,
        1
      ]
    ],
    [
      11,
      "New Label",
      3,
      [
        [
          14,
          "健康可所有",
          1,
          1,
          -30,
          [
            15
          ]
        ]
      ],
      [
        1,
        "edHV2tb0RJxIZQVK9+1zki",
        1
      ],
      [
        4,
        4278190080
      ],
      [
        5,
        200,
        50.4
      ],
      [
        2.456,
        14.737,
        0,
        0,
        0,
        0,
        1,
        1,
        1,
        1
      ]
    ],
    [
      2,
      "弯管",
      1,
      [
        0,
        "2becEjOcpBH689jgGZ4j8i",
        true,
        -31,
        18
      ],
      [
        7.661,
        -146.886,
        0,
        0,
        0,
        0,
        1,
        1,
        1,
        1
      ]
    ]
  ],
  0,
  [
    0,
    0,
    1,
    0,
    2,
    1,
    0,
    -1,
    2,
    0,
    -2,
    6,
    0,
    -3,
    7,
    0,
    -4,
    8,
    0,
    -5,
    9,
    0,
    -6,
    10,
    0,
    -7,
    11,
    0,
    -8,
    12,
    0,
    -9,
    13,
    0,
    -10,
    14,
    0,
    -11,
    3,
    0,
    -12,
    16,
    0,
    -1,
    4,
    0,
    -2,
    5,
    0,
    2,
    3,
    0,
    -1,
    15,
    0,
    2,
    4,
    0,
    2,
    5,
    0,
    2,
    6,
    0,
    2,
    7,
    0,
    0,
    8,
    0,
    0,
    9,
    0,
    0,
    10,
    0,
    0,
    11,
    0,
    0,
    12,
    0,
    0,
    13,
    0,
    0,
    14,
    0,
    2,
    15,
    0,
    0,
    16,
    0,
    4,
    1,
    31
  ],
  [
    0,
    0,
    0,
    0,
    0,
    0,
    0,
    0,
    0,
    0,
    0,
    0,
    0,
    0,
    0,
    0,
    0,
    0,
    0
  ],
  [
    -1,
    3,
    -1,
    3,
    -1,
    3,
    -1,
    3,
    1,
    1,
    1,
    1,
    1,
    1,
    1,
    -1,
    -1,
    3,
    1
  ],
  [
    0,
    3,
    0,
    4,
    0,
    5,
    0,
    6,
    7,
    1,
    2,
    8,
    2,
    9,
    10,
    0,
    0,
    11,
    1
  ]
]