[
  1,
  [
    "1bb64c947",
    "1c1a5b1b7"
  ],
  [
    "_textureSetter"
  ],
  [
    "cc.SpriteFrame",
    [
      "cc.AnimationClip",
      [
        "_name",
        "_duration",
        "sample",
        "wrapMode",
        "curveData"
      ],
      -1,
      11
    ]
  ],
  [
    [
      1,
      0,
      1,
      2,
      3,
      4,
      5
    ]
  ],
  [
    [
      [
        [
          0,
          "胜利页面背景光动画",
          0.6666666666666666,
          30,
          2,
          [
            {},
            "paths",
            11,
            [
              {
                "光": {
                  "props": {
                    "angle": [
                      {
                        "frame": 0,
                        "value": 40
                      },
                      {
                        "frame": 0.6666666666666666,
                        "value": -40
                      }
                    ]
                  }
                }
              },
              "星星",
              11,
              [
                {},
                "props",
                11,
                [
                  {},
                  "scale",
                  12,
                  [
                    [
                      [
                        {
                          "frame": 0
                        },
                        "value",
                        8,
                        [
                          0,
                          1,
                          1
                        ]
                      ],
                      [
                        {
                          "frame": 0.3333333333333333
                        },
                        "value",
                        8,
                        [
                          0,
                          1.19,
                          1.19
                        ]
                      ],
                      [
                        {
                          "frame": 0.6666666666666666
                        },
                        "value",
                        8,
                        [
                          0,
                          1,
                          1
                        ]
                      ]
                    ],
                    11,
                    11,
                    11
                  ]
                ]
              ]
            ]
          ]
        ]
      ],
      0,
      0,
      [],
      [],
      []
    ],
    [
      [
        {
          "name": "星星",
          "rect": [
            57,
            1634,
            371,
            216
          ],
          "offset": [
            -0.5,
            0.5
          ],
          "originalSize": [
            388,
            233
          ],
          "rotated": 1,
          "capInsets": [
            0,
            0,
            0,
            0
          ]
        }
      ],
      [
        0
      ],
      0,
      [
        0
      ],
      [
        0
      ],
      [
        0
      ]
    ],
    [
      [
        {
          "name": "十倍领取背景",
          "rect": [
            552,
            1634,
            288,
            110
          ],
          "offset": [
            -0.5,
            0
          ],
          "originalSize": [
            293,
            114
          ],
          "rotated": 1,
          "capInsets": [
            0,
            0,
            0,
            0
          ]
        }
      ],
      [
        0
      ],
      0,
      [
        0
      ],
      [
        0
      ],
      [
        0
      ]
    ],
    [
      [
        {
          "name": "弹窗背景板",
          "rect": [
            3,
            427,
            524,
            540
          ],
          "offset": [
            1.5,
            0
          ],
          "originalSize": [
            527,
            540
          ],
          "rotated": 1,
          "capInsets": [
            0,
            0,
            0,
            0
          ]
        }
      ],
      [
        0
      ],
      0,
      [
        0
      ],
      [
        0
      ],
      [
        1
      ]
    ],
    [
      [
        {
          "name": "光",
          "rect": [
            3,
            957,
            552,
            552
          ],
          "offset": [
            -4,
            20.5
          ],
          "originalSize": [
            638,
            639
          ],
          "capInsets": [
            0,
            0,
            0,
            0
          ]
        }
      ],
      [
        0
      ],
      0,
      [
        0
      ],
      [
        0
      ],
      [
        1
      ]
    ]
  ]
]