[
  1,
  [
    "ecpdLyjvZBwrvm+cedCcQy",
    "e5IYV67PtJKrAGyzwXgs1F",
    "e97GVMl6JHh5Ml5qEDdSGa",
    "f0BIwQ8D5Ml7nTNQbh1YlS",
    "29FYIk+N1GYaeWH/q1NxQO",
    "a2MjXRFdtLlYQ5ouAFv/+R",
    "0ax2BLc+xJEaJNMZ2tBfoJ",
    "b1v09teLRGXZJ57FpMYkf9",
    "e8tZ/EvFlKK5asLCx4bRdb",
    "60jeu4uDBPV6vfg7u5p9MC"
  ],
  [
    "node",
    "_spriteFrame",
    "_N$normalSprite",
    "_N$pressedSprite",
    "_N$hoverSprite",
    "_N$disabledSprite",
    "_N$dragonAsset",
    "_N$dragonAtlasAsset",
    "root",
    "roleAni",
    "btnReturn",
    "btnSure",
    "nodeRole",
    "data",
    "_parent"
  ],
  [
    [
      "cc.Node",
      [
        "_name",
        "_objFlags",
        "_groupIndex",
        "_opacity",
        "_components",
        "_prefab",
        "_contentSize",
        "_trs",
        "_parent",
        "_color",
        "_children"
      ],
      -1,
      9,
      4,
      5,
      7,
      1,
      5,
      2
    ],
    [
      "cc.Sprite",
      [
        "_sizeMode",
        "_type",
        "node",
        "_materials",
        "_spriteFrame"
      ],
      1,
      1,
      3,
      6
    ],
    [
      "cc.Widget",
      [
        "_alignFlags",
        "_originalWidth",
        "_originalHeight",
        "_left",
        "_top",
        "_bottom",
        "node"
      ],
      -3,
      1
    ],
    [
      "cc.PrefabInfo",
      [
        "fileId",
        "root"
      ],
      2,
      1
    ],
    [
      "cc.Label",
      [
        "_string",
        "_N$horizontalAlign",
        "_N$verticalAlign",
        "_fontSize",
        "_lineHeight",
        "node",
        "_materials"
      ],
      -2,
      1,
      3
    ],
    [
      "cc.Prefab",
      [
        "_name"
      ],
      2
    ],
    [
      "cc.Node",
      [
        "_name",
        "_parent",
        "_components",
        "_prefab",
        "_contentSize",
        "_trs"
      ],
      2,
      1,
      2,
      4,
      5,
      7
    ],
    [
      "cc.Node",
      [
        "_name",
        "_parent",
        "_children",
        "_components",
        "_prefab",
        "_contentSize",
        "_trs"
      ],
      2,
      1,
      2,
      12,
      4,
      5,
      7
    ],
    [
      "dragonBones.ArmatureDisplay",
      [
        "_armatureName",
        "_animationName",
        "_preCacheMode",
        "_armatureKey",
        "node",
        "_materials"
      ],
      -1,
      1,
      3
    ],
    [
      "cc.Button",
      [
        "zoomScale",
        "_N$transition",
        "node",
        "clickEvents",
        "_N$normalColor",
        "_N$pressedColor",
        "_N$disabledColor",
        "_N$target"
      ],
      1,
      1,
      9,
      5,
      5,
      5,
      1
    ],
    [
      "cc.ClickEvent",
      [
        "component",
        "handler",
        "target"
      ],
      1,
      1
    ],
    [
      "cc.BlockInputEvents",
      [
        "node"
      ],
      3,
      1
    ],
    [
      "6fefcuCbGBJz7QzSdIFPOjg",
      [
        "node",
        "nodeRole",
        "btnSure",
        "btnReturn",
        "roleAni"
      ],
      3,
      1,
      1,
      1,
      1,
      1
    ]
  ],
  [
    [
      3,
      0,
      1,
      2
    ],
    [
      7,
      0,
      1,
      2,
      3,
      4,
      5,
      6,
      2
    ],
    [
      2,
      0,
      3,
      4,
      5,
      6,
      5
    ],
    [
      9,
      0,
      1,
      2,
      3,
      4,
      5,
      6,
      7,
      3
    ],
    [
      10,
      0,
      1,
      2,
      3
    ],
    [
      5,
      0,
      2
    ],
    [
      0,
      0,
      2,
      10,
      4,
      5,
      6,
      7,
      3
    ],
    [
      0,
      0,
      3,
      8,
      4,
      5,
      9,
      6,
      3
    ],
    [
      0,
      0,
      1,
      10,
      4,
      5,
      6,
      7,
      3
    ],
    [
      0,
      0,
      8,
      4,
      5,
      9,
      6,
      7,
      2
    ],
    [
      0,
      0,
      8,
      4,
      5,
      6,
      7,
      2
    ],
    [
      0,
      0,
      1,
      8,
      4,
      5,
      9,
      6,
      7,
      3
    ],
    [
      6,
      0,
      1,
      2,
      3,
      4,
      5,
      2
    ],
    [
      1,
      0,
      2,
      3,
      4,
      2
    ],
    [
      1,
      2,
      3,
      4,
      1
    ],
    [
      1,
      1,
      0,
      2,
      3,
      4,
      3
    ],
    [
      2,
      0,
      1,
      2,
      6,
      4
    ],
    [
      2,
      0,
      6,
      2
    ],
    [
      3,
      1,
      1
    ],
    [
      8,
      0,
      1,
      2,
      3,
      4,
      5,
      5
    ],
    [
      4,
      0,
      1,
      2,
      5,
      6,
      4
    ],
    [
      4,
      0,
      3,
      4,
      1,
      2,
      5,
      6,
      6
    ],
    [
      11,
      0,
      1
    ],
    [
      12,
      0,
      1,
      2,
      3,
      4,
      1
    ]
  ],
  [
    [
      5,
      "FashionRewardView"
    ],
    [
      6,
      "FashionRewardView",
      1,
      [
        -9,
        -10,
        -11,
        -12
      ],
      [
        [
          17,
          45,
          -2
        ],
        [
          22,
          -3
        ],
        [
          23,
          -8,
          -7,
          -6,
          -5,
          -4
        ]
      ],
      [
        18,
        -1
      ],
      [
        5,
        750,
        1334
      ],
      [
        375,
        667,
        0,
        0,
        0,
        0,
        1,
        1,
        1,
        1
      ]
    ],
    [
      8,
      "Background",
      512,
      [
        -14,
        -15
      ],
      [
        [
          15,
          1,
          2,
          -13,
          [
            6
          ],
          7
        ]
      ],
      [
        0,
        "69M5flNQJE0aFRGicQXEJa",
        1
      ],
      [
        5,
        249,
        114
      ],
      [
        0,
        0,
        0,
        0,
        0,
        0,
        1,
        1,
        1,
        0
      ]
    ],
    [
      1,
      "btnSure",
      1,
      [
        2
      ],
      [
        [
          -16,
          [
            2,
            4,
            250.5,
            812.641,
            407.35900000000004,
            -17
          ]
        ],
        1,
        4
      ],
      [
        0,
        "99OZYSR7ZHsLwhcA4i/VO3",
        1
      ],
      [
        5,
        249,
        114
      ],
      [
        0,
        -202.64099999999996,
        0,
        0,
        0,
        0,
        1,
        1,
        1,
        1
      ]
    ],
    [
      1,
      "btnReturn",
      1,
      [
        -20
      ],
      [
        [
          -18,
          [
            2,
            4,
            343,
            832.088,
            326.8,
            -19
          ]
        ],
        1,
        4
      ],
      [
        0,
        "3eJzIhh1RFRaZrqBfbmE0Q",
        1
      ],
      [
        5,
        80,
        50.4
      ],
      [
        0,
        -315,
        0,
        0,
        0,
        0,
        1,
        1,
        1,
        1
      ]
    ],
    [
      7,
      "New Sprite(Splash)",
      180,
      1,
      [
        [
          13,
          0,
          -21,
          [
            0
          ],
          1
        ],
        [
          16,
          45,
          100,
          100,
          -22
        ]
      ],
      [
        0,
        "3crcaC3ipMDY79Byh+LBIB",
        1
      ],
      [
        4,
        4278190080
      ],
      [
        5,
        750,
        1334
      ]
    ],
    [
      12,
      "nodeRole",
      1,
      [
        -23
      ],
      [
        0,
        "aaKXRESH5D0J2QGlPCXJu0",
        1
      ],
      [
        5,
        156.01,
        360.54
      ],
      [
        0,
        -124.277,
        0,
        0,
        0,
        0,
        1,
        1,
        1,
        1
      ]
    ],
    [
      11,
      "Background",
      512,
      4,
      [
        [
          21,
          "算了",
          30,
          30,
          1,
          1,
          -24,
          [
            8
          ]
        ]
      ],
      [
        0,
        "b9nn8WBeJBBIlg6Dfl+sAC",
        1
      ],
      [
        4,
        4288322202
      ],
      [
        5,
        60,
        37.8
      ],
      [
        0,
        0,
        0,
        0,
        0,
        0,
        1,
        1,
        1,
        0
      ]
    ],
    [
      19,
      "男主角",
      "初始_害怕",
      0,
      "e8b59fc4-bc59-4a2b-96ac-2c2c786d175b#608debb8-b830-4f57-abdf-83bbb9a7d302",
      6,
      [
        2
      ]
    ],
    [
      9,
      "New Label",
      2,
      [
        [
          20,
          "领取",
          1,
          1,
          -25,
          [
            3
          ]
        ]
      ],
      [
        0,
        "82H/d4sJtF76jsFdzqK5o0",
        1
      ],
      [
        4,
        4278190080
      ],
      [
        5,
        80,
        50.4
      ],
      [
        33.857,
        0,
        0,
        0,
        0,
        0,
        1,
        1,
        1,
        1
      ]
    ],
    [
      10,
      "看视频",
      2,
      [
        [
          14,
          -26,
          [
            4
          ],
          5
        ]
      ],
      [
        0,
        "24hVMtGDVLnqByjLE1caQc",
        1
      ],
      [
        5,
        64,
        53
      ],
      [
        -51.725,
        0,
        0,
        0,
        0,
        0,
        1,
        1,
        1,
        1
      ]
    ],
    [
      3,
      0.8,
      3,
      3,
      [
        [
          4,
          "FashionRewardView",
          "click_btn_sure",
          1
        ]
      ],
      [
        4,
        4293322470
      ],
      [
        4,
        4291348680
      ],
      [
        4,
        3363338360
      ],
      2
    ],
    [
      3,
      0.8,
      3,
      4,
      [
        [
          4,
          "FashionRewardView",
          "click_btn_return",
          1
        ]
      ],
      [
        4,
        4293322470
      ],
      [
        4,
        4291348680
      ],
      [
        4,
        3363338360
      ],
      7
    ]
  ],
  0,
  [
    0,
    8,
    1,
    0,
    0,
    1,
    0,
    0,
    1,
    0,
    9,
    8,
    0,
    10,
    12,
    0,
    11,
    11,
    0,
    12,
    6,
    0,
    0,
    1,
    0,
    -1,
    5,
    0,
    -2,
    6,
    0,
    -3,
    3,
    0,
    -4,
    4,
    0,
    0,
    2,
    0,
    -1,
    9,
    0,
    -2,
    10,
    0,
    -1,
    11,
    0,
    0,
    3,
    0,
    -1,
    12,
    0,
    0,
    4,
    0,
    -1,
    7,
    0,
    0,
    5,
    0,
    0,
    5,
    0,
    -1,
    8,
    0,
    0,
    7,
    0,
    0,
    9,
    0,
    0,
    10,
    0,
    13,
    1,
    2,
    14,
    3,
    26
  ],
  [
    0,
    0,
    0,
    0,
    0,
    0,
    0,
    0,
    0,
    8,
    8,
    11,
    11,
    11,
    11,
    12,
    12,
    12,
    12
  ],
  [
    -1,
    1,
    -1,
    -1,
    -1,
    1,
    -1,
    1,
    -1,
    6,
    7,
    2,
    3,
    4,
    5,
    2,
    3,
    4,
    5
  ],
  [
    0,
    5,
    0,
    0,
    0,
    6,
    0,
    7,
    0,
    8,
    9,
    1,
    2,
    3,
    4,
    1,
    2,
    3,
    4
  ]
]