[
  1,
  [
    "1c1a5b1b7"
  ],
  [
    "_textureSetter"
  ],
  [
    "cc.SpriteFrame"
  ],
  0,
  [
    {
      "name": "重玩按钮背景",
      "rect": [
        3,
        123,
        245,
        110
      ],
      "offset": [
        0,
        0
      ],
      "originalSize": [
        249,
        114
      ],
      "capInsets": [
        0,
        0,
        0,
        0
      ]
    }
  ],
  [
    0
  ],
  0,
  [
    0
  ],
  [
    0
  ],
  [
    0
  ]
]