{
    "paths": {
        "c4+xoRjmlJ8olB/SQ8EeWM": [
            "bing",
            "cc.Prefab"
        ],
        "67EcTcTgpO0JmSQFU5Ai1L": [
            "du",
            "cc.Prefab"
        ],
        "08d+HZUkVFeJxItx3y3ZrH": [
            "huo",
            "cc.Prefab"
        ],
        "a1hUS5HOpNbKJp0ENPk4Ad": [
            "shengming",
            "cc.Prefab"
        ],
        "a7FpZCpppAbYDJODLgBCUo": [
            "shui",
            "cc.Prefab"
        ],
        "63YvM+RpNLIZWMcoaj0tzB": [
            "冰",
            "cc.Prefab"
        ],
        "5b7HvLt/ZJ1KIuNSxp9jUb": [
            "客厅",
            "cc.Prefab"
        ],
        "6aYoUE1SRKCbx4Mnj9c9E3": [
            "岩浆",
            "cc.Prefab"
        ],
        "c4B5ZCO1RLS6riFErhmvaZ": [
            "新物品",
            "cc.Prefab"
        ],
        "80qBYuU1NCj5xt0P3hLKxV": [
            "毒液",
            "cc.Prefab"
        ],
        "61K0jbEnxF1raCMelmX1dh": [
            "水",
            "cc.Prefab"
        ],
        "d4Sy2zF2VChZeVzKVtFq5q": [
            "烟",
            "cc.Prefab"
        ],
        "bfGho3qtBFpIMXv0ranFu1": [
            "爆开",
            "cc.Prefab"
        ],
        "1bxp0wcEZJdLShhWR0GyJr": [
            "生命",
            "cc.Prefab"
        ]
    },
    "uuids": [
        "bfGho3qtBFpIMXv0ranFu1",
        "63YvM+RpNLIZWMcoaj0tzB",
        "80qBYuU1NCj5xt0P3hLKxV",
        "5b7HvLt/ZJ1KIuNSxp9jUb",
        "1bxp0wcEZJdLShhWR0GyJr",
        "61K0jbEnxF1raCMelmX1dh",
        "c4B5ZCO1RLS6riFErhmvaZ",
        "d4Sy2zF2VChZeVzKVtFq5q",
        "6aYoUE1SRKCbx4Mnj9c9E3",
        "c4+xoRjmlJ8olB/SQ8EeWM",
        "67EcTcTgpO0JmSQFU5Ai1L",
        "08d+HZUkVFeJxItx3y3ZrH",
        "a1hUS5HOpNbKJp0ENPk4Ad",
        "a7FpZCpppAbYDJODLgBCUo",
        "ecpdLyjvZBwrvm+cedCcQy",
        "31qfTTPl5KjLa26x6TlllA",
        "dcWrhr+5JNobzScmg0bfVy",
        "3bLAt58cFJUpwVEpjuy0WA",
        "e9rh7QD8BDA58+tAT00DCi",
        "70pHK9lt5FJp3iuRd3rhfb",
        "f8aTv2xu9I7IyLoNn1QxVR",
        "c0YL7y7OxPxqY7CuTTziJb",
        "37aaf6C6VHI6nwJ5leeIo/",
        "a8VmBCYQNHXpdNctgjghoN",
        "a4PVFgja5B+I8+m967OsPw",
        "81aO/hrW5DD49CQgPpQft9",
        "32x59WfytHPYEeq3WL9gUG",
        "baOuTWm+dHApWtSh0rP872",
        "1b9YoMJQFKaIHoHxUOt+tq",
        "4dXaBXQERPnJrG9cpmPCce",
        "70cm0i8ixMepLq8DL4D6KO",
        "58lzrRfGlJjLcx+Om4ilhc",
        "79PL+1srJDM6mJkvDRAsoS",
        "b2aHrECZ5APKGS/0d2hvT1",
        "28CsHCc5ZIz6L0jyzz7q5B",
        "f514rzLqVMSa3YXqc7Rhn7",
        "f9as7/mJ5NaozgzINlNSGn",
        "d6fxWgloBIDKX1R4MqVLfe",
        "dfa0JaTK1OW5yabb+HJUGj",
        "4eWEcHJCRDGJ8arnV7J1ga",
        "66q5hYYm9IPZxEHIB7EIqF",
        "c2mF1WrW1PWKz4b8oWvqRW",
        "89/tUpZf1EGo/DdbqgPddz",
        "e0DXXiYutKvoMyx7v9z9ln",
        "3eKEX8Ox1CtqAZEdZzp+im",
        "48Q4d0NjdHF5yeUSqBz5bi",
        "dekyN3WatLYKqLBg/MS5hI",
        "e46xjOJDFOrpKQRY04hx+v",
        "ecNQ8cysBI/bUoPjtzedK7",
        "08iJPGmORA4ZiAqQuvKldX",
        "7ejJRDId9AXrnj8cjaD4EI",
        "7a4+4JP4JIequqcqmUVQsE",
        "58x63EJytJ7Lze8H95DmVy",
        "23mEFd6zdMT6tlYQQBU3LL",
        "67+jQmyzVJi5pocMZTWdGF",
        "f82h7FqwZLNrJsWTY9S5N7",
        "f7JSrGFPdPQanWDGpZLyYQ",
        "101zKWAP5EuqhQyuaGhZNs",
        "a9eR9jUkZPbIV4UW9Y0hmZ",
        "948S81IfJDWrmuv3neI/EC",
        "a5NCLqMdhFPYgxfOmm3GTw",
        "327IakLp5Ki66882xg4xuE",
        "f927EIo1lMP7j6OFWdajpS",
        "9aFF1D2OxA4axHVQvvNs/E",
        "d7XwDUNeJDi7q8MOdpm6tI",
        "afec4d9ZhAVIoBrFtZVA10",
        "2fsZaDv0lAe5lA/uVVD4YF",
        "69m/Taa+1EV6pFl9A57H3a",
        "cb7S3C4k1DiKpZeRnUziLa",
        "98MaPpEMhLp7SxiBdoec+V"
    ],
    "scenes": {},
    "redirect": [
        "ecpdLyjvZBwrvm+cedCcQy",
        0,
        "b2aHrECZ5APKGS/0d2hvT1",
        1,
        "c2mF1WrW1PWKz4b8oWvqRW",
        1
    ],
    "deps": [
        "internal",
        "resources"
    ],
    "packs": {
        "0c092bba0": [
            "28CsHCc5ZIz6L0jyzz7q5B",
            "bfGho3qtBFpIMXv0ranFu1"
        ],
        "0b1a3107f": [
            "31qfTTPl5KjLa26x6TlllA",
            "63YvM+RpNLIZWMcoaj0tzB"
        ],
        "09e03b4c9": [
            "79PL+1srJDM6mJkvDRAsoS",
            "80qBYuU1NCj5xt0P3hLKxV"
        ],
        "083f5cc3f": [
            "1bxp0wcEZJdLShhWR0GyJr",
            "dfa0JaTK1OW5yabb+HJUGj"
        ],
        "0f3bf19a7": [
            "4eWEcHJCRDGJ8arnV7J1ga",
            "61K0jbEnxF1raCMelmX1dh"
        ],
        "0d592680e": [
            "c4B5ZCO1RLS6riFErhmvaZ",
            "d6fxWgloBIDKX1R4MqVLfe",
            "f514rzLqVMSa3YXqc7Rhn7",
            "f9as7/mJ5NaozgzINlNSGn"
        ],
        "060be94e0": [
            "66q5hYYm9IPZxEHIB7EIqF",
            "d4Sy2zF2VChZeVzKVtFq5q"
        ],
        "03d18c0f4": [
            "1b9YoMJQFKaIHoHxUOt+tq",
            "32x59WfytHPYEeq3WL9gUG",
            "37aaf6C6VHI6nwJ5leeIo/",
            "3bLAt58cFJUpwVEpjuy0WA",
            "4dXaBXQERPnJrG9cpmPCce",
            "58lzrRfGlJjLcx+Om4ilhc",
            "5b7HvLt/ZJ1KIuNSxp9jUb",
            "70cm0i8ixMepLq8DL4D6KO",
            "70pHK9lt5FJp3iuRd3rhfb",
            "81aO/hrW5DD49CQgPpQft9",
            "a4PVFgja5B+I8+m967OsPw",
            "a8VmBCYQNHXpdNctgjghoN",
            "baOuTWm+dHApWtSh0rP872",
            "c0YL7y7OxPxqY7CuTTziJb",
            "dcWrhr+5JNobzScmg0bfVy",
            "e9rh7QD8BDA58+tAT00DCi",
            "f8aTv2xu9I7IyLoNn1QxVR"
        ],
        "03900b61d": [
            "6aYoUE1SRKCbx4Mnj9c9E3",
            "e0DXXiYutKvoMyx7v9z9ln"
        ],
        "0d1af5476": [
            "08iJPGmORA4ZiAqQuvKldX",
            "101zKWAP5EuqhQyuaGhZNs",
            "23mEFd6zdMT6tlYQQBU3LL",
            "2fsZaDv0lAe5lA/uVVD4YF",
            "327IakLp5Ki66882xg4xuE",
            "3eKEX8Ox1CtqAZEdZzp+im",
            "48Q4d0NjdHF5yeUSqBz5bi",
            "58x63EJytJ7Lze8H95DmVy",
            "67+jQmyzVJi5pocMZTWdGF",
            "69m/Taa+1EV6pFl9A57H3a",
            "7a4+4JP4JIequqcqmUVQsE",
            "7ejJRDId9AXrnj8cjaD4EI",
            "948S81IfJDWrmuv3neI/EC",
            "98MaPpEMhLp7SxiBdoec+V",
            "9aFF1D2OxA4axHVQvvNs/E",
            "a5NCLqMdhFPYgxfOmm3GTw",
            "a9eR9jUkZPbIV4UW9Y0hmZ",
            "afec4d9ZhAVIoBrFtZVA10",
            "cb7S3C4k1DiKpZeRnUziLa",
            "d7XwDUNeJDi7q8MOdpm6tI",
            "dekyN3WatLYKqLBg/MS5hI",
            "e46xjOJDFOrpKQRY04hx+v",
            "ecNQ8cysBI/bUoPjtzedK7",
            "f7JSrGFPdPQanWDGpZLyYQ",
            "f82h7FqwZLNrJsWTY9S5N7",
            "f927EIo1lMP7j6OFWdajpS"
        ]
    },
    "name": "model",
    "importBase": "import",
    "nativeBase": "native",
    "debug": true,
    "isZip": false,
    "encrypted": false,
    "versions": {
        "import": [
            "03900b61d",
            "bfffa",
            "03d18c0f4",
            "9c9db",
            "060be94e0",
            "9cc45",
            "083f5cc3f",
            "375ce",
            "08d+HZUkVFeJxItx3y3ZrH",
            "26dfc",
            "09e03b4c9",
            "3e34f",
            "0b1a3107f",
            "4151b",
            "0c092bba0",
            "ebbab",
            "0d1af5476",
            "e3121",
            "0d592680e",
            "4c33d",
            "0f3bf19a7",
            "9d20b",
            "67EcTcTgpO0JmSQFU5Ai1L",
            "8a4db",
            "89/tUpZf1EGo/DdbqgPddz",
            "8da9b",
            "a1hUS5HOpNbKJp0ENPk4Ad",
            "ed799",
            "a7FpZCpppAbYDJODLgBCUo",
            "cc263",
            "c4+xoRjmlJ8olB/SQ8EeWM",
            "028a0"
        ],
        "native": [
            "08iJPGmORA4ZiAqQuvKldX",
            "6c813",
            "101zKWAP5EuqhQyuaGhZNs",
            "ea364",
            "23mEFd6zdMT6tlYQQBU3LL",
            "31d78",
            "2fsZaDv0lAe5lA/uVVD4YF",
            "1b594",
            "327IakLp5Ki66882xg4xuE",
            "4ec86",
            "3eKEX8Ox1CtqAZEdZzp+im",
            "b19ea",
            "48Q4d0NjdHF5yeUSqBz5bi",
            "292f9",
            "58x63EJytJ7Lze8H95DmVy",
            "997ac",
            "67+jQmyzVJi5pocMZTWdGF",
            "5f505",
            "69m/Taa+1EV6pFl9A57H3a",
            "e3e8c",
            "7a4+4JP4JIequqcqmUVQsE",
            "b97f3",
            "7ejJRDId9AXrnj8cjaD4EI",
            "78be1",
            "948S81IfJDWrmuv3neI/EC",
            "c5305",
            "98MaPpEMhLp7SxiBdoec+V",
            "c0730",
            "9aFF1D2OxA4axHVQvvNs/E",
            "4b74b",
            "a5NCLqMdhFPYgxfOmm3GTw",
            "2ef10",
            "a9eR9jUkZPbIV4UW9Y0hmZ",
            "4d31a",
            "afec4d9ZhAVIoBrFtZVA10",
            "22b35",
            "cb7S3C4k1DiKpZeRnUziLa",
            "9ea68",
            "d7XwDUNeJDi7q8MOdpm6tI",
            "98df5",
            "dekyN3WatLYKqLBg/MS5hI",
            "974d1",
            "e46xjOJDFOrpKQRY04hx+v",
            "37700",
            "ecNQ8cysBI/bUoPjtzedK7",
            "d0147",
            "f7JSrGFPdPQanWDGpZLyYQ",
            "4f83a",
            "f82h7FqwZLNrJsWTY9S5N7",
            "17b5f",
            "f927EIo1lMP7j6OFWdajpS",
            "771f0"
        ]
    }
}