[
  1,
  [
    "1f277fe72"
  ],
  [
    "_textureSetter"
  ],
  [
    "cc.SpriteFrame"
  ],
  0,
  [
    {
      "name": "新客厅场景_灯",
      "rect": [
        3,
        3,
        266,
        63
      ],
      "offset": [
        0,
        -1
      ],
      "originalSize": [
        266,
        65
      ],
      "capInsets": [
        0,
        0,
        0,
        0
      ]
    }
  ],
  [
    0
  ],
  0,
  [
    0
  ],
  [
    0
  ],
  [
    0
  ]
]