[
  1,
  [
    "69m/Taa+1EV6pFl9A57H3a",
    "ecpdLyjvZBwrvm+cedCcQy",
    "4eWEcHJCRDGJ8arnV7J1ga"
  ],
  [
    "node",
    "_textureSetter",
    "root",
    "data",
    "_spriteFrame"
  ],
  [
    "cc.SpriteFrame",
    [
      "cc.Prefab",
      [
        "_name"
      ],
      2
    ],
    [
      "cc.Node",
      [
        "_name",
        "_opacity",
        "_groupIndex",
        "_components",
        "_prefab",
        "_contentSize",
        "_trs"
      ],
      0,
      9,
      4,
      5,
      7
    ],
    [
      "cc.Sprite",
      [
        "_sizeMode",
        "node",
        "_materials",
        "_spriteFrame"
      ],
      2,
      1,
      3,
      6
    ],
    [
      "cc.RigidBody",
      [
        "node",
        "_linearVelocity"
      ],
      3,
      1,
      5
    ],
    [
      "cc.PhysicsPolygonCollider",
      [
        "tag",
        "_friction",
        "_restitution",
        "node",
        "points"
      ],
      0,
      1,
      12
    ],
    [
      "cc.PrefabInfo",
      [
        "root"
      ],
      3,
      1
    ]
  ],
  [
    [
      1,
      0,
      2
    ],
    [
      2,
      0,
      1,
      2,
      3,
      4,
      5,
      6,
      4
    ],
    [
      3,
      0,
      1,
      2,
      3,
      2
    ],
    [
      4,
      0,
      1,
      1
    ],
    [
      5,
      0,
      1,
      2,
      3,
      4,
      4
    ],
    [
      6,
      0,
      1
    ]
  ],
  [
    [
      [
        {
          "name": "颜色_水",
          "rect": [
            0,
            0,
            232,
            234
          ],
          "offset": [
            0,
            0
          ],
          "originalSize": [
            232,
            234
          ],
          "capInsets": [
            0,
            0,
            0,
            0
          ]
        }
      ],
      [
        0
      ],
      0,
      [
        0
      ],
      [
        1
      ],
      [
        0
      ]
    ],
    [
      [
        [
          0,
          "水"
        ],
        [
          1,
          "water",
          180,
          2,
          [
            [
              2,
              2,
              -2,
              [
                0
              ],
              1
            ],
            [
              3,
              -3,
              [
                0,
                0,
                -100
              ]
            ],
            [
              4,
              101,
              0,
              0.8,
              -4,
              [
                [
                  [
                    0,
                    0,
                    -30
                  ],
                  [
                    0,
                    30,
                    20
                  ],
                  [
                    0,
                    -30,
                    20
                  ]
                ],
                8,
                8,
                8
              ]
            ]
          ],
          [
            5,
            -1
          ],
          [
            5,
            232,
            234
          ],
          [
            0,
            0,
            0,
            0,
            0,
            0,
            1,
            0.5,
            0.5,
            1
          ]
        ]
      ],
      0,
      [
        0,
        2,
        1,
        0,
        0,
        1,
        0,
        0,
        1,
        0,
        0,
        1,
        0,
        3,
        1,
        4
      ],
      [
        0,
        0
      ],
      [
        -1,
        4
      ],
      [
        1,
        2
      ]
    ]
  ]
]