[
  1,
  [
    "ecpdLyjvZBwrvm+cedCcQy",
    "b2aHrECZ5APKGS/0d2hvT1",
    "89/tUpZf1EGo/DdbqgPddz"
  ],
  [
    "_file",
    "_spriteFrame",
    "root",
    "node",
    "data"
  ],
  [
    [
      "cc.Prefab",
      [
        "_name"
      ],
      2
    ],
    [
      "cc.Node",
      [
        "_name",
        "_components",
        "_prefab"
      ],
      2,
      9,
      4
    ],
    [
      "cc.ParticleSystem",
      [
        "_custom",
        "_stopped",
        "totalParticles",
        "emissionRate",
        "life",
        "lifeVar",
        "angle",
        "angleVar",
        "startSize",
        "startSizeVar",
        "endSize",
        "endSizeVar",
        "_positionType",
        "speed",
        "speedVar",
        "tangentialAccel",
        "rotationIsDir",
        "node",
        "_materials",
        "_startColor",
        "_startColorVar",
        "_endColor",
        "_endColorVar",
        "posVar",
        "gravity",
        "_file",
        "_spriteFrame"
      ],
      -14,
      1,
      3,
      8,
      8,
      8,
      8,
      5,
      5,
      6,
      6
    ],
    [
      "cc.PrefabInfo",
      [
        "root"
      ],
      3,
      1
    ]
  ],
  [
    [
      0,
      0,
      2
    ],
    [
      1,
      0,
      1,
      2,
      2
    ],
    [
      2,
      0,
      1,
      2,
      3,
      4,
      5,
      6,
      7,
      8,
      9,
      10,
      11,
      12,
      13,
      14,
      15,
      16,
      17,
      18,
      19,
      20,
      21,
      22,
      23,
      24,
      25,
      26,
      18
    ],
    [
      3,
      0,
      1
    ]
  ],
  [
    [
      0,
      "du"
    ],
    [
      1,
      "du",
      [
        [
          2,
          true,
          false,
          50,
          60,
          0.4,
          0.1,
          0,
          360,
          20,
          10,
          70,
          20,
          1,
          0.01,
          0,
          0,
          true,
          -2,
          [
            0
          ],
          [
            4,
            4287627062
          ],
          [
            4,
            0
          ],
          [
            4,
            4285398857
          ],
          [
            4,
            0
          ],
          [
            0,
            10,
            10
          ],
          [
            0,
            0,
            -500
          ],
          1,
          2
        ]
      ],
      [
        3,
        -1
      ]
    ]
  ],
  0,
  [
    0,
    2,
    1,
    0,
    3,
    1,
    0,
    4,
    1,
    2
  ],
  [
    0,
    0,
    0
  ],
  [
    -1,
    0,
    1
  ],
  [
    0,
    1,
    2
  ]
]